%YAML 1.1
%TAG !u! tag:unity3d.com,2011:
--- !u!1001 &5310145788629970804
PrefabInstance:
  m_ObjectHideFlags: 0
  serializedVersion: 2
  m_Modification:
    m_TransformParent: {fileID: 0}
    m_Modifications:
    - target: {fileID: 100006, guid: ccbcfc705a39717429590a9f247ec30a, type: 3}
      propertyPath: m_Name
      value: Einschuss
      objectReference: {fileID: 0}
    - target: {fileID: 400006, guid: ccbcfc705a39717429590a9f247ec30a, type: 3}
      propertyPath: m_LocalPosition.x
      value: 0.055646773
      objectReference: {fileID: 0}
    - target: {fileID: 400006, guid: ccbcfc705a39717429590a9f247ec30a, type: 3}
      propertyPath: m_LocalPosition.y
      value: 4.837934e-18
      objectReference: {fileID: 0}
    - target: {fileID: 400006, guid: ccbcfc705a39717429590a9f247ec30a, type: 3}
      propertyPath: m_LocalPosition.z
      value: 5.324238
      objectReference: {fileID: 0}
    - target: {fileID: 400006, guid: ccbcfc705a39717429590a9f247ec30a, type: 3}
      propertyPath: m_LocalRotation.x
      value: 0
      objectReference: {fileID: 0}
    - target: {fileID: 400006, guid: ccbcfc705a39717429590a9f247ec30a, type: 3}
      propertyPath: m_LocalRotation.y
      value: 0
      objectReference: {fileID: 0}
    - target: {fileID: 400006, guid: ccbcfc705a39717429590a9f247ec30a, type: 3}
      propertyPath: m_LocalRotation.z
      value: 0
      objectReference: {fileID: 0}
    - target: {fileID: 400006, guid: ccbcfc705a39717429590a9f247ec30a, type: 3}
      propertyPath: m_LocalRotation.w
      value: 1
      objectReference: {fileID: 0}
    - target: {fileID: 400006, guid: ccbcfc705a39717429590a9f247ec30a, type: 3}
      propertyPath: m_RootOrder
      value: 0
      objectReference: {fileID: 0}
    - target: {fileID: 400006, guid: ccbcfc705a39717429590a9f247ec30a, type: 3}
      propertyPath: m_LocalEulerAnglesHint.x
      value: 0
      objectReference: {fileID: 0}
    - target: {fileID: 400006, guid: ccbcfc705a39717429590a9f247ec30a, type: 3}
      propertyPath: m_LocalEulerAnglesHint.y
      value: 0
      objectReference: {fileID: 0}
    - target: {fileID: 400006, guid: ccbcfc705a39717429590a9f247ec30a, type: 3}
      propertyPath: m_LocalEulerAnglesHint.z
      value: 0
      objectReference: {fileID: 0}
    - target: {fileID: 19800004, guid: ccbcfc705a39717429590a9f247ec30a, type: 3}
      propertyPath: InitialModule.startSizeY.minMaxState
      value: 3
      objectReference: {fileID: 0}
    - target: {fileID: 19800004, guid: ccbcfc705a39717429590a9f247ec30a, type: 3}
      propertyPath: InitialModule.startSizeZ.minMaxState
      value: 3
      objectReference: {fileID: 0}
    - target: {fileID: 19800004, guid: ccbcfc705a39717429590a9f247ec30a, type: 3}
      propertyPath: looping
      value: 0
      objectReference: {fileID: 0}
    - target: {fileID: 19800004, guid: ccbcfc705a39717429590a9f247ec30a, type: 3}
      propertyPath: lengthInSec
      value: 0.2
      objectReference: {fileID: 0}
    - target: {fileID: 19800004, guid: ccbcfc705a39717429590a9f247ec30a, type: 3}
      propertyPath: InitialModule.startSize.scalar
      value: 0.3
      objectReference: {fileID: 0}
    - target: {fileID: 19800004, guid: ccbcfc705a39717429590a9f247ec30a, type: 3}
      propertyPath: InitialModule.startSize.minScalar
      value: 0.2
      objectReference: {fileID: 0}
    - target: {fileID: 19800004, guid: ccbcfc705a39717429590a9f247ec30a, type: 3}
      propertyPath: playOnAwake
      value: 1
      objectReference: {fileID: 0}
    - target: {fileID: 19800000, guid: ccbcfc705a39717429590a9f247ec30a, type: 3}
      propertyPath: InitialModule.startSizeY.minMaxState
      value: 3
      objectReference: {fileID: 0}
    - target: {fileID: 19800000, guid: ccbcfc705a39717429590a9f247ec30a, type: 3}
      propertyPath: InitialModule.startSizeZ.minMaxState
      value: 3
      objectReference: {fileID: 0}
    - target: {fileID: 19800000, guid: ccbcfc705a39717429590a9f247ec30a, type: 3}
      propertyPath: InitialModule.startRotationX.minMaxState
      value: 2
      objectReference: {fileID: 0}
    - target: {fileID: 19800000, guid: ccbcfc705a39717429590a9f247ec30a, type: 3}
      propertyPath: InitialModule.startRotationX.scalar
      value: 3.1415927
      objectReference: {fileID: 0}
    - target: {fileID: 19800000, guid: ccbcfc705a39717429590a9f247ec30a, type: 3}
      propertyPath: InitialModule.startRotationY.minMaxState
      value: 2
      objectReference: {fileID: 0}
    - target: {fileID: 19800000, guid: ccbcfc705a39717429590a9f247ec30a, type: 3}
      propertyPath: InitialModule.startRotationY.scalar
      value: 3.1415927
      objectReference: {fileID: 0}
    - target: {fileID: 19800000, guid: ccbcfc705a39717429590a9f247ec30a, type: 3}
      propertyPath: lengthInSec
      value: 0.1
      objectReference: {fileID: 0}
    - target: {fileID: 19800000, guid: ccbcfc705a39717429590a9f247ec30a, type: 3}
      propertyPath: looping
      value: 0
      objectReference: {fileID: 0}
    - target: {fileID: 19800000, guid: ccbcfc705a39717429590a9f247ec30a, type: 3}
      propertyPath: playOnAwake
      value: 1
      objectReference: {fileID: 0}
    - target: {fileID: 19800002, guid: ccbcfc705a39717429590a9f247ec30a, type: 3}
      propertyPath: InitialModule.startSizeY.minMaxState
      value: 2
      objectReference: {fileID: 0}
    - target: {fileID: 19800002, guid: ccbcfc705a39717429590a9f247ec30a, type: 3}
      propertyPath: InitialModule.startSizeZ.minMaxState
      value: 2
      objectReference: {fileID: 0}
    - target: {fileID: 19800002, guid: ccbcfc705a39717429590a9f247ec30a, type: 3}
      propertyPath: InitialModule.startRotationX.minMaxState
      value: 2
      objectReference: {fileID: 0}
    - target: {fileID: 19800002, guid: ccbcfc705a39717429590a9f247ec30a, type: 3}
      propertyPath: InitialModule.startRotationX.scalar
      value: 3.1415927
      objectReference: {fileID: 0}
    - target: {fileID: 19800002, guid: ccbcfc705a39717429590a9f247ec30a, type: 3}
      propertyPath: InitialModule.startRotationY.minMaxState
      value: 2
      objectReference: {fileID: 0}
    - target: {fileID: 19800002, guid: ccbcfc705a39717429590a9f247ec30a, type: 3}
      propertyPath: InitialModule.startRotationY.scalar
      value: 3.1415927
      objectReference: {fileID: 0}
    - target: {fileID: 19800002, guid: ccbcfc705a39717429590a9f247ec30a, type: 3}
      propertyPath: lengthInSec
      value: 0.2
      objectReference: {fileID: 0}
    - target: {fileID: 19800002, guid: ccbcfc705a39717429590a9f247ec30a, type: 3}
      propertyPath: EmissionModule.m_Bursts.Array.data[1].time
      value: 0.05
      objectReference: {fileID: 0}
    - target: {fileID: 19800002, guid: ccbcfc705a39717429590a9f247ec30a, type: 3}
      propertyPath: EmissionModule.m_Bursts.Array.data[2].time
      value: 0.05
      objectReference: {fileID: 0}
    - target: {fileID: 19800002, guid: ccbcfc705a39717429590a9f247ec30a, type: 3}
      propertyPath: looping
      value: 0
      objectReference: {fileID: 0}
    - target: {fileID: 19800002, guid: ccbcfc705a39717429590a9f247ec30a, type: 3}
      propertyPath: playOnAwake
      value: 1
      objectReference: {fileID: 0}
    m_RemovedComponents: []
  m_SourcePrefab: {fileID: 100100000, guid: ccbcfc705a39717429590a9f247ec30a, type: 3}
